# 3ds Max Wavefront OBJ Exporter v0.97b - (c)2007 guruware
# File Created: 26.10.2018 13:01:43

newmtl wire_177148027
	Ns 32
	d 1
	Tr 0
	Tf 1 1 1
	illum 2
	Ka 0.6941 0.5804 0.1059
	Kd 0.6941 0.5804 0.1059
	Ks 0.3500 0.3500 0.3500

newmtl wire_006135006
	Ns 32
	d 1
	Tr 0
	Tf 1 1 1
	illum 2
	Ka 0.0235 0.5294 0.0235
	Kd 0.0235 0.5294 0.0235
	Ks 0.3500 0.3500 0.3500
