# 3ds Max Wavefront OBJ Exporter v0.97b - (c)2007 guruware
# File Created: 09.12.2018 13:16:57

newmtl wire_028149177
	Ns 32
	d 1
	Tr 0
	Tf 1 1 1
	illum 2
	Ka 0.1098 0.5843 0.6941
	Kd 0.1098 0.5843 0.6941
	Ks 0.3500 0.3500 0.3500

newmtl wire_088144225
	Ns 32
	d 1
	Tr 0
	Tf 1 1 1
	illum 2
	Ka 0.3451 0.5647 0.8824
	Kd 0.3451 0.5647 0.8824
	Ks 0.3500 0.3500 0.3500

newmtl wire_108008136
	Ns 32
	d 1
	Tr 0
	Tf 1 1 1
	illum 2
	Ka 0.4235 0.0314 0.5333
	Kd 0.4235 0.0314 0.5333
	Ks 0.3500 0.3500 0.3500
