^D:\DESKTOP\ON GOING PROJECTS\DREAMEATER\GAME\GAME\ATTACKABLEOBJECT.CPP
/c /ZI /nologo /W3 /WX- /diagnostics:classic /sdl- /Od /Oy- /D WIN32 /D _DEBUG /D _CONSOLE /D _LIB /D _UNICODE /D UNICODE /Gm- /EHsc /RTC1 /MDd /GS /fp:precise /Zc:wchar_t /Zc:forScope /Zc:inline /Fo"DEBUG\\" /Fd"DEBUG\VC141.PDB" /Gd /TP /analyze- /FC D:\DESKTOP\ON GOING PROJECTS\DREAMEATER\GAME\GAME\ATTACKABLEOBJECT.CPP
^D:\DESKTOP\ON GOING PROJECTS\DREAMEATER\GAME\GAME\DREAMCAMERA.CPP
/c /ZI /nologo /W3 /WX- /diagnostics:classic /sdl- /Od /Oy- /D WIN32 /D _DEBUG /D _CONSOLE /D _LIB /D _UNICODE /D UNICODE /Gm- /EHsc /RTC1 /MDd /GS /fp:precise /Zc:wchar_t /Zc:forScope /Zc:inline /Fo"DEBUG\\" /Fd"DEBUG\VC141.PDB" /Gd /TP /analyze- /FC D:\DESKTOP\ON GOING PROJECTS\DREAMEATER\GAME\GAME\DREAMCAMERA.CPP
^D:\DESKTOP\ON GOING PROJECTS\DREAMEATER\GAME\GAME\DREAMCUSTOM.CPP
/c /ZI /nologo /W3 /WX- /diagnostics:classic /sdl- /Od /Oy- /D WIN32 /D _DEBUG /D _CONSOLE /D _LIB /D _UNICODE /D UNICODE /Gm- /EHsc /RTC1 /MDd /GS /fp:precise /Zc:wchar_t /Zc:forScope /Zc:inline /Fo"DEBUG\\" /Fd"DEBUG\VC141.PDB" /Gd /TP /analyze- /FC D:\DESKTOP\ON GOING PROJECTS\DREAMEATER\GAME\GAME\DREAMCUSTOM.CPP
^D:\DESKTOP\ON GOING PROJECTS\DREAMEATER\GAME\GAME\DREAMEATERSHADER.CPP
/c /ZI /nologo /W3 /WX- /diagnostics:classic /sdl- /Od /Oy- /D WIN32 /D _DEBUG /D _CONSOLE /D _LIB /D _UNICODE /D UNICODE /Gm- /EHsc /RTC1 /MDd /GS /fp:precise /Zc:wchar_t /Zc:forScope /Zc:inline /Fo"DEBUG\\" /Fd"DEBUG\VC141.PDB" /Gd /TP /analyze- /FC D:\DESKTOP\ON GOING PROJECTS\DREAMEATER\GAME\GAME\DREAMEATERSHADER.CPP
^D:\DESKTOP\ON GOING PROJECTS\DREAMEATER\GAME\GAME\DREAMEATERTERRAINTEXTURES.CPP
/c /ZI /nologo /W3 /WX- /diagnostics:classic /sdl- /Od /Oy- /D WIN32 /D _DEBUG /D _CONSOLE /D _LIB /D _UNICODE /D UNICODE /Gm- /EHsc /RTC1 /MDd /GS /fp:precise /Zc:wchar_t /Zc:forScope /Zc:inline /Fo"DEBUG\\" /Fd"DEBUG\VC141.PDB" /Gd /TP /analyze- /FC D:\DESKTOP\ON GOING PROJECTS\DREAMEATER\GAME\GAME\DREAMEATERTERRAINTEXTURES.CPP
^D:\DESKTOP\ON GOING PROJECTS\DREAMEATER\GAME\GAME\DREAMINSTANCED.CPP
/c /ZI /nologo /W3 /WX- /diagnostics:classic /sdl- /Od /Oy- /D WIN32 /D _DEBUG /D _CONSOLE /D _LIB /D _UNICODE /D UNICODE /Gm- /EHsc /RTC1 /MDd /GS /fp:precise /Zc:wchar_t /Zc:forScope /Zc:inline /Fo"DEBUG\\" /Fd"DEBUG\VC141.PDB" /Gd /TP /analyze- /FC D:\DESKTOP\ON GOING PROJECTS\DREAMEATER\GAME\GAME\DREAMINSTANCED.CPP
^D:\DESKTOP\ON GOING PROJECTS\DREAMEATER\GAME\GAME\DREAMOBJECTFACTORY.CPP
/c /ZI /nologo /W3 /WX- /diagnostics:classic /sdl- /Od /Oy- /D WIN32 /D _DEBUG /D _CONSOLE /D _LIB /D _UNICODE /D UNICODE /Gm- /EHsc /RTC1 /MDd /GS /fp:precise /Zc:wchar_t /Zc:forScope /Zc:inline /Fo"DEBUG\\" /Fd"DEBUG\VC141.PDB" /Gd /TP /analyze- /FC D:\DESKTOP\ON GOING PROJECTS\DREAMEATER\GAME\GAME\DREAMOBJECTFACTORY.CPP
^D:\DESKTOP\ON GOING PROJECTS\DREAMEATER\GAME\GAME\DREAMTERRAIN.CPP
/c /ZI /nologo /W3 /WX- /diagnostics:classic /sdl- /Od /Oy- /D WIN32 /D _DEBUG /D _CONSOLE /D _LIB /D _UNICODE /D UNICODE /Gm- /EHsc /RTC1 /MDd /GS /fp:precise /Zc:wchar_t /Zc:forScope /Zc:inline /Fo"DEBUG\\" /Fd"DEBUG\VC141.PDB" /Gd /TP /analyze- /FC D:\DESKTOP\ON GOING PROJECTS\DREAMEATER\GAME\GAME\DREAMTERRAIN.CPP
^D:\DESKTOP\ON GOING PROJECTS\DREAMEATER\GAME\GAME\ENEMYMINION.CPP
/c /ZI /nologo /W3 /WX- /diagnostics:classic /sdl- /Od /Oy- /D WIN32 /D _DEBUG /D _CONSOLE /D _LIB /D _UNICODE /D UNICODE /Gm- /EHsc /RTC1 /MDd /GS /fp:precise /Zc:wchar_t /Zc:forScope /Zc:inline /Fo"DEBUG\\" /Fd"DEBUG\VC141.PDB" /Gd /TP /analyze- /FC D:\DESKTOP\ON GOING PROJECTS\DREAMEATER\GAME\GAME\ENEMYMINION.CPP
^D:\DESKTOP\ON GOING PROJECTS\DREAMEATER\GAME\GAME\ENEMYPOOL.CPP
/c /ZI /nologo /W3 /WX- /diagnostics:classic /sdl- /Od /Oy- /D WIN32 /D _DEBUG /D _CONSOLE /D _LIB /D _UNICODE /D UNICODE /Gm- /EHsc /RTC1 /MDd /GS /fp:precise /Zc:wchar_t /Zc:forScope /Zc:inline /Fo"DEBUG\\" /Fd"DEBUG\VC141.PDB" /Gd /TP /analyze- /FC D:\DESKTOP\ON GOING PROJECTS\DREAMEATER\GAME\GAME\ENEMYPOOL.CPP
^D:\DESKTOP\ON GOING PROJECTS\DREAMEATER\GAME\GAME\ENEMYSPAWNER.CPP
/c /ZI /nologo /W3 /WX- /diagnostics:classic /sdl- /Od /Oy- /D WIN32 /D _DEBUG /D _CONSOLE /D _LIB /D _UNICODE /D UNICODE /Gm- /EHsc /RTC1 /MDd /GS /fp:precise /Zc:wchar_t /Zc:forScope /Zc:inline /Fo"DEBUG\\" /Fd"DEBUG\VC141.PDB" /Gd /TP /analyze- /FC D:\DESKTOP\ON GOING PROJECTS\DREAMEATER\GAME\GAME\ENEMYSPAWNER.CPP
^D:\DESKTOP\ON GOING PROJECTS\DREAMEATER\GAME\GAME\ENTITYSHADERS.CPP
/c /ZI /nologo /W3 /WX- /diagnostics:classic /sdl- /Od /Oy- /D WIN32 /D _DEBUG /D _CONSOLE /D _LIB /D _UNICODE /D UNICODE /Gm- /EHsc /RTC1 /MDd /GS /fp:precise /Zc:wchar_t /Zc:forScope /Zc:inline /Fo"DEBUG\\" /Fd"DEBUG\VC141.PDB" /Gd /TP /analyze- /FC D:\DESKTOP\ON GOING PROJECTS\DREAMEATER\GAME\GAME\ENTITYSHADERS.CPP
^D:\DESKTOP\ON GOING PROJECTS\DREAMEATER\GAME\GAME\INSTANCEDSHADER.CPP
/c /ZI /nologo /W3 /WX- /diagnostics:classic /sdl- /Od /Oy- /D WIN32 /D _DEBUG /D _CONSOLE /D _LIB /D _UNICODE /D UNICODE /Gm- /EHsc /RTC1 /MDd /GS /fp:precise /Zc:wchar_t /Zc:forScope /Zc:inline /Fo"DEBUG\\" /Fd"DEBUG\VC141.PDB" /Gd /TP /analyze- /FC D:\DESKTOP\ON GOING PROJECTS\DREAMEATER\GAME\GAME\INSTANCEDSHADER.CPP
^D:\DESKTOP\ON GOING PROJECTS\DREAMEATER\GAME\GAME\KEYBOARDMOVE.CPP
/c /ZI /nologo /W3 /WX- /diagnostics:classic /sdl- /Od /Oy- /D WIN32 /D _DEBUG /D _CONSOLE /D _LIB /D _UNICODE /D UNICODE /Gm- /EHsc /RTC1 /MDd /GS /fp:precise /Zc:wchar_t /Zc:forScope /Zc:inline /Fo"DEBUG\\" /Fd"DEBUG\VC141.PDB" /Gd /TP /analyze- /FC D:\DESKTOP\ON GOING PROJECTS\DREAMEATER\GAME\GAME\KEYBOARDMOVE.CPP
^D:\DESKTOP\ON GOING PROJECTS\DREAMEATER\GAME\GAME\MAIN.CPP
/c /ZI /nologo /W3 /WX- /diagnostics:classic /sdl- /Od /Oy- /D WIN32 /D _DEBUG /D _CONSOLE /D _LIB /D _UNICODE /D UNICODE /Gm- /EHsc /RTC1 /MDd /GS /fp:precise /Zc:wchar_t /Zc:forScope /Zc:inline /Fo"DEBUG\\" /Fd"DEBUG\VC141.PDB" /Gd /TP /analyze- /FC D:\DESKTOP\ON GOING PROJECTS\DREAMEATER\GAME\GAME\MAIN.CPP
^D:\DESKTOP\ON GOING PROJECTS\DREAMEATER\GAME\GAME\MAINMENU.CPP
/c /ZI /nologo /W3 /WX- /diagnostics:classic /sdl- /Od /Oy- /D WIN32 /D _DEBUG /D _CONSOLE /D _LIB /D _UNICODE /D UNICODE /Gm- /EHsc /RTC1 /MDd /GS /fp:precise /Zc:wchar_t /Zc:forScope /Zc:inline /Fo"DEBUG\\" /Fd"DEBUG\VC141.PDB" /Gd /TP /analyze- /FC D:\DESKTOP\ON GOING PROJECTS\DREAMEATER\GAME\GAME\MAINMENU.CPP
^D:\DESKTOP\ON GOING PROJECTS\DREAMEATER\GAME\GAME\PLAYER.CPP
/c /ZI /nologo /W3 /WX- /diagnostics:classic /sdl- /Od /Oy- /D WIN32 /D _DEBUG /D _CONSOLE /D _LIB /D _UNICODE /D UNICODE /Gm- /EHsc /RTC1 /MDd /GS /fp:precise /Zc:wchar_t /Zc:forScope /Zc:inline /Fo"DEBUG\\" /Fd"DEBUG\VC141.PDB" /Gd /TP /analyze- /FC D:\DESKTOP\ON GOING PROJECTS\DREAMEATER\GAME\GAME\PLAYER.CPP
^D:\DESKTOP\ON GOING PROJECTS\DREAMEATER\GAME\GAME\PLAYERCONTROLSWITCH.CPP
/c /ZI /nologo /W3 /WX- /diagnostics:classic /sdl- /Od /Oy- /D WIN32 /D _DEBUG /D _CONSOLE /D _LIB /D _UNICODE /D UNICODE /Gm- /EHsc /RTC1 /MDd /GS /fp:precise /Zc:wchar_t /Zc:forScope /Zc:inline /Fo"DEBUG\\" /Fd"DEBUG\VC141.PDB" /Gd /TP /analyze- /FC D:\DESKTOP\ON GOING PROJECTS\DREAMEATER\GAME\GAME\PLAYERCONTROLSWITCH.CPP
^D:\DESKTOP\ON GOING PROJECTS\DREAMEATER\GAME\GAME\PLAYERMOVEMENT.CPP
/c /ZI /nologo /W3 /WX- /diagnostics:classic /sdl- /Od /Oy- /D WIN32 /D _DEBUG /D _CONSOLE /D _LIB /D _UNICODE /D UNICODE /Gm- /EHsc /RTC1 /MDd /GS /fp:precise /Zc:wchar_t /Zc:forScope /Zc:inline /Fo"DEBUG\\" /Fd"DEBUG\VC141.PDB" /Gd /TP /analyze- /FC D:\DESKTOP\ON GOING PROJECTS\DREAMEATER\GAME\GAME\PLAYERMOVEMENT.CPP
^D:\DESKTOP\ON GOING PROJECTS\DREAMEATER\GAME\GAME\ROAMBEHAVIOUR.CPP
/c /ZI /nologo /W3 /WX- /diagnostics:classic /sdl- /Od /Oy- /D WIN32 /D _DEBUG /D _CONSOLE /D _LIB /D _UNICODE /D UNICODE /Gm- /EHsc /RTC1 /MDd /GS /fp:precise /Zc:wchar_t /Zc:forScope /Zc:inline /Fo"DEBUG\\" /Fd"DEBUG\VC141.PDB" /Gd /TP /analyze- /FC D:\DESKTOP\ON GOING PROJECTS\DREAMEATER\GAME\GAME\ROAMBEHAVIOUR.CPP
^D:\DESKTOP\ON GOING PROJECTS\DREAMEATER\GAME\GAME\STARTGAME.CPP
/c /ZI /nologo /W3 /WX- /diagnostics:classic /sdl- /Od /Oy- /D WIN32 /D _DEBUG /D _CONSOLE /D _LIB /D _UNICODE /D UNICODE /Gm- /EHsc /RTC1 /MDd /GS /fp:precise /Zc:wchar_t /Zc:forScope /Zc:inline /Fo"DEBUG\\" /Fd"DEBUG\VC141.PDB" /Gd /TP /analyze- /FC D:\DESKTOP\ON GOING PROJECTS\DREAMEATER\GAME\GAME\STARTGAME.CPP
^D:\DESKTOP\ON GOING PROJECTS\DREAMEATER\GAME\GAME\TRACKCOLOUREDAREA.CPP
/c /ZI /nologo /W3 /WX- /diagnostics:classic /sdl- /Od /Oy- /D WIN32 /D _DEBUG /D _CONSOLE /D _LIB /D _UNICODE /D UNICODE /Gm- /EHsc /RTC1 /MDd /GS /fp:precise /Zc:wchar_t /Zc:forScope /Zc:inline /Fo"DEBUG\\" /Fd"DEBUG\VC141.PDB" /Gd /TP /analyze- /FC D:\DESKTOP\ON GOING PROJECTS\DREAMEATER\GAME\GAME\TRACKCOLOUREDAREA.CPP
^D:\DESKTOP\ON GOING PROJECTS\DREAMEATER\GAME\GAME\WORLD.CPP
/c /ZI /nologo /W3 /WX- /diagnostics:classic /sdl- /Od /Oy- /D WIN32 /D _DEBUG /D _CONSOLE /D _LIB /D _UNICODE /D UNICODE /Gm- /EHsc /RTC1 /MDd /GS /fp:precise /Zc:wchar_t /Zc:forScope /Zc:inline /Fo"DEBUG\\" /Fd"DEBUG\VC141.PDB" /Gd /TP /analyze- /FC D:\DESKTOP\ON GOING PROJECTS\DREAMEATER\GAME\GAME\WORLD.CPP
^D:\DESKTOP\ON GOING PROJECTS\DREAMEATER\GAME\GAME\DREAMTERRAINSHADERS.CPP
/c /ZI /nologo /W3 /WX- /diagnostics:classic /sdl- /Od /Oy- /D WIN32 /D _DEBUG /D _CONSOLE /D _LIB /D _UNICODE /D UNICODE /Gm- /EHsc /RTC1 /MDd /GS /fp:precise /Zc:wchar_t /Zc:forScope /Zc:inline /Fo"DEBUG\\" /Fd"DEBUG\VC141.PDB" /Gd /TP /analyze- /FC D:\DESKTOP\ON GOING PROJECTS\DREAMEATER\GAME\GAME\DREAMTERRAINSHADERS.CPP
^W:\STUDENT\2017-18\ST20123567\OPENGL DEVELOPMENT\DREAMEATER\GAME\GAME\DREAMEATERTERRAINTEXTURES.CPP
/c /ZI /nologo /W3 /WX- /diagnostics:classic /sdl- /Od /Oy- /D WIN32 /D _DEBUG /D _CONSOLE /D _LIB /D _UNICODE /D UNICODE /Gm- /EHsc /RTC1 /MDd /GS /fp:precise /Zc:wchar_t /Zc:forScope /Zc:inline /Fo"DEBUG\\" /Fd"DEBUG\VC141.PDB" /Gd /TP /analyze- /FC W:\STUDENT\2017-18\ST20123567\OPENGL DEVELOPMENT\DREAMEATER\GAME\GAME\DREAMEATERTERRAINTEXTURES.CPP
^W:\STUDENT\2017-18\ST20123567\OPENGL DEVELOPMENT\DREAMEATER\GAME\GAME\PROJECTILECREATOR.CPP
/c /ZI /nologo /W3 /WX- /diagnostics:classic /sdl- /Od /Oy- /D WIN32 /D _DEBUG /D _CONSOLE /D _LIB /D _UNICODE /D UNICODE /Gm- /EHsc /RTC1 /MDd /GS /fp:precise /Zc:wchar_t /Zc:forScope /Zc:inline /Fo"DEBUG\\" /Fd"DEBUG\VC141.PDB" /Gd /TP /analyze- /FC W:\STUDENT\2017-18\ST20123567\OPENGL DEVELOPMENT\DREAMEATER\GAME\GAME\PROJECTILECREATOR.CPP
^W:\STUDENT\2017-18\ST20123567\OPENGL DEVELOPMENT\DREAMEATER\GAME\GAME\CARA.CPP
/c /ZI /nologo /W3 /WX- /diagnostics:classic /sdl- /Od /Oy- /D WIN32 /D _DEBUG /D _CONSOLE /D _LIB /D _UNICODE /D UNICODE /Gm- /EHsc /RTC1 /MDd /GS /fp:precise /Zc:wchar_t /Zc:forScope /Zc:inline /Fo"DEBUG\\" /Fd"DEBUG\VC141.PDB" /Gd /TP /analyze- /FC W:\STUDENT\2017-18\ST20123567\OPENGL DEVELOPMENT\DREAMEATER\GAME\GAME\CARA.CPP
^W:\STUDENT\2017-18\ST20123567\OPENGL DEVELOPMENT\DREAMEATER\GAME\GAME\DREAMCAMERA.CPP
/c /ZI /nologo /W3 /WX- /diagnostics:classic /sdl- /Od /Oy- /D WIN32 /D _DEBUG /D _CONSOLE /D _LIB /D _UNICODE /D UNICODE /Gm- /EHsc /RTC1 /MDd /GS /fp:precise /Zc:wchar_t /Zc:forScope /Zc:inline /Fo"DEBUG\\" /Fd"DEBUG\VC141.PDB" /Gd /TP /analyze- /FC W:\STUDENT\2017-18\ST20123567\OPENGL DEVELOPMENT\DREAMEATER\GAME\GAME\DREAMCAMERA.CPP
^W:\STUDENT\2017-18\ST20123567\OPENGL DEVELOPMENT\DREAMEATER\GAME\GAME\DREAMCUSTOM.CPP
/c /ZI /nologo /W3 /WX- /diagnostics:classic /sdl- /Od /Oy- /D WIN32 /D _DEBUG /D _CONSOLE /D _LIB /D _UNICODE /D UNICODE /Gm- /EHsc /RTC1 /MDd /GS /fp:precise /Zc:wchar_t /Zc:forScope /Zc:inline /Fo"DEBUG\\" /Fd"DEBUG\VC141.PDB" /Gd /TP /analyze- /FC W:\STUDENT\2017-18\ST20123567\OPENGL DEVELOPMENT\DREAMEATER\GAME\GAME\DREAMCUSTOM.CPP
^W:\STUDENT\2017-18\ST20123567\OPENGL DEVELOPMENT\DREAMEATER\GAME\GAME\DREAMINSTANCED.CPP
/c /ZI /nologo /W3 /WX- /diagnostics:classic /sdl- /Od /Oy- /D WIN32 /D _DEBUG /D _CONSOLE /D _LIB /D _UNICODE /D UNICODE /Gm- /EHsc /RTC1 /MDd /GS /fp:precise /Zc:wchar_t /Zc:forScope /Zc:inline /Fo"DEBUG\\" /Fd"DEBUG\VC141.PDB" /Gd /TP /analyze- /FC W:\STUDENT\2017-18\ST20123567\OPENGL DEVELOPMENT\DREAMEATER\GAME\GAME\DREAMINSTANCED.CPP
^W:\STUDENT\2017-18\ST20123567\OPENGL DEVELOPMENT\DREAMEATER\GAME\GAME\DREAMOBJECTFACTORY.CPP
/c /ZI /nologo /W3 /WX- /diagnostics:classic /sdl- /Od /Oy- /D WIN32 /D _DEBUG /D _CONSOLE /D _LIB /D _UNICODE /D UNICODE /Gm- /EHsc /RTC1 /MDd /GS /fp:precise /Zc:wchar_t /Zc:forScope /Zc:inline /Fo"DEBUG\\" /Fd"DEBUG\VC141.PDB" /Gd /TP /analyze- /FC W:\STUDENT\2017-18\ST20123567\OPENGL DEVELOPMENT\DREAMEATER\GAME\GAME\DREAMOBJECTFACTORY.CPP
^W:\STUDENT\2017-18\ST20123567\OPENGL DEVELOPMENT\DREAMEATER\GAME\GAME\DREAMTERRAIN.CPP
/c /ZI /nologo /W3 /WX- /diagnostics:classic /sdl- /Od /Oy- /D WIN32 /D _DEBUG /D _CONSOLE /D _LIB /D _UNICODE /D UNICODE /Gm- /EHsc /RTC1 /MDd /GS /fp:precise /Zc:wchar_t /Zc:forScope /Zc:inline /Fo"DEBUG\\" /Fd"DEBUG\VC141.PDB" /Gd /TP /analyze- /FC W:\STUDENT\2017-18\ST20123567\OPENGL DEVELOPMENT\DREAMEATER\GAME\GAME\DREAMTERRAIN.CPP
^W:\STUDENT\2017-18\ST20123567\OPENGL DEVELOPMENT\DREAMEATER\GAME\GAME\DREAMTERRAINSHADERS.CPP
/c /ZI /nologo /W3 /WX- /diagnostics:classic /sdl- /Od /Oy- /D WIN32 /D _DEBUG /D _CONSOLE /D _LIB /D _UNICODE /D UNICODE /Gm- /EHsc /RTC1 /MDd /GS /fp:precise /Zc:wchar_t /Zc:forScope /Zc:inline /Fo"DEBUG\\" /Fd"DEBUG\VC141.PDB" /Gd /TP /analyze- /FC W:\STUDENT\2017-18\ST20123567\OPENGL DEVELOPMENT\DREAMEATER\GAME\GAME\DREAMTERRAINSHADERS.CPP
^W:\STUDENT\2017-18\ST20123567\OPENGL DEVELOPMENT\DREAMEATER\GAME\GAME\DREAMEATERSHADER.CPP
/c /ZI /nologo /W3 /WX- /diagnostics:classic /sdl- /Od /Oy- /D WIN32 /D _DEBUG /D _CONSOLE /D _LIB /D _UNICODE /D UNICODE /Gm- /EHsc /RTC1 /MDd /GS /fp:precise /Zc:wchar_t /Zc:forScope /Zc:inline /Fo"DEBUG\\" /Fd"DEBUG\VC141.PDB" /Gd /TP /analyze- /FC W:\STUDENT\2017-18\ST20123567\OPENGL DEVELOPMENT\DREAMEATER\GAME\GAME\DREAMEATERSHADER.CPP
^W:\STUDENT\2017-18\ST20123567\OPENGL DEVELOPMENT\DREAMEATER\GAME\GAME\ENEMYMINION.CPP
/c /ZI /nologo /W3 /WX- /diagnostics:classic /sdl- /Od /Oy- /D WIN32 /D _DEBUG /D _CONSOLE /D _LIB /D _UNICODE /D UNICODE /Gm- /EHsc /RTC1 /MDd /GS /fp:precise /Zc:wchar_t /Zc:forScope /Zc:inline /Fo"DEBUG\\" /Fd"DEBUG\VC141.PDB" /Gd /TP /analyze- /FC W:\STUDENT\2017-18\ST20123567\OPENGL DEVELOPMENT\DREAMEATER\GAME\GAME\ENEMYMINION.CPP
^W:\STUDENT\2017-18\ST20123567\OPENGL DEVELOPMENT\DREAMEATER\GAME\GAME\ENEMYPOOL.CPP
/c /ZI /nologo /W3 /WX- /diagnostics:classic /sdl- /Od /Oy- /D WIN32 /D _DEBUG /D _CONSOLE /D _LIB /D _UNICODE /D UNICODE /Gm- /EHsc /RTC1 /MDd /GS /fp:precise /Zc:wchar_t /Zc:forScope /Zc:inline /Fo"DEBUG\\" /Fd"DEBUG\VC141.PDB" /Gd /TP /analyze- /FC W:\STUDENT\2017-18\ST20123567\OPENGL DEVELOPMENT\DREAMEATER\GAME\GAME\ENEMYPOOL.CPP
^W:\STUDENT\2017-18\ST20123567\OPENGL DEVELOPMENT\DREAMEATER\GAME\GAME\ENTITYSHADERS.CPP
/c /ZI /nologo /W3 /WX- /diagnostics:classic /sdl- /Od /Oy- /D WIN32 /D _DEBUG /D _CONSOLE /D _LIB /D _UNICODE /D UNICODE /Gm- /EHsc /RTC1 /MDd /GS /fp:precise /Zc:wchar_t /Zc:forScope /Zc:inline /Fo"DEBUG\\" /Fd"DEBUG\VC141.PDB" /Gd /TP /analyze- /FC W:\STUDENT\2017-18\ST20123567\OPENGL DEVELOPMENT\DREAMEATER\GAME\GAME\ENTITYSHADERS.CPP
^W:\STUDENT\2017-18\ST20123567\OPENGL DEVELOPMENT\DREAMEATER\GAME\GAME\INSTANCEDSHADER.CPP
/c /ZI /nologo /W3 /WX- /diagnostics:classic /sdl- /Od /Oy- /D WIN32 /D _DEBUG /D _CONSOLE /D _LIB /D _UNICODE /D UNICODE /Gm- /EHsc /RTC1 /MDd /GS /fp:precise /Zc:wchar_t /Zc:forScope /Zc:inline /Fo"DEBUG\\" /Fd"DEBUG\VC141.PDB" /Gd /TP /analyze- /FC W:\STUDENT\2017-18\ST20123567\OPENGL DEVELOPMENT\DREAMEATER\GAME\GAME\INSTANCEDSHADER.CPP
^W:\STUDENT\2017-18\ST20123567\OPENGL DEVELOPMENT\DREAMEATER\GAME\GAME\KEYBOARDMOVE.CPP
/c /ZI /nologo /W3 /WX- /diagnostics:classic /sdl- /Od /Oy- /D WIN32 /D _DEBUG /D _CONSOLE /D _LIB /D _UNICODE /D UNICODE /Gm- /EHsc /RTC1 /MDd /GS /fp:precise /Zc:wchar_t /Zc:forScope /Zc:inline /Fo"DEBUG\\" /Fd"DEBUG\VC141.PDB" /Gd /TP /analyze- /FC W:\STUDENT\2017-18\ST20123567\OPENGL DEVELOPMENT\DREAMEATER\GAME\GAME\KEYBOARDMOVE.CPP
^W:\STUDENT\2017-18\ST20123567\OPENGL DEVELOPMENT\DREAMEATER\GAME\GAME\MAINMENU.CPP
/c /ZI /nologo /W3 /WX- /diagnostics:classic /sdl- /Od /Oy- /D WIN32 /D _DEBUG /D _CONSOLE /D _LIB /D _UNICODE /D UNICODE /Gm- /EHsc /RTC1 /MDd /GS /fp:precise /Zc:wchar_t /Zc:forScope /Zc:inline /Fo"DEBUG\\" /Fd"DEBUG\VC141.PDB" /Gd /TP /analyze- /FC W:\STUDENT\2017-18\ST20123567\OPENGL DEVELOPMENT\DREAMEATER\GAME\GAME\MAINMENU.CPP
^W:\STUDENT\2017-18\ST20123567\OPENGL DEVELOPMENT\DREAMEATER\GAME\GAME\PLAYER.CPP
/c /ZI /nologo /W3 /WX- /diagnostics:classic /sdl- /Od /Oy- /D WIN32 /D _DEBUG /D _CONSOLE /D _LIB /D _UNICODE /D UNICODE /Gm- /EHsc /RTC1 /MDd /GS /fp:precise /Zc:wchar_t /Zc:forScope /Zc:inline /Fo"DEBUG\\" /Fd"DEBUG\VC141.PDB" /Gd /TP /analyze- /FC W:\STUDENT\2017-18\ST20123567\OPENGL DEVELOPMENT\DREAMEATER\GAME\GAME\PLAYER.CPP
^W:\STUDENT\2017-18\ST20123567\OPENGL DEVELOPMENT\DREAMEATER\GAME\GAME\PLAYERCONTROLSWITCH.CPP
/c /ZI /nologo /W3 /WX- /diagnostics:classic /sdl- /Od /Oy- /D WIN32 /D _DEBUG /D _CONSOLE /D _LIB /D _UNICODE /D UNICODE /Gm- /EHsc /RTC1 /MDd /GS /fp:precise /Zc:wchar_t /Zc:forScope /Zc:inline /Fo"DEBUG\\" /Fd"DEBUG\VC141.PDB" /Gd /TP /analyze- /FC W:\STUDENT\2017-18\ST20123567\OPENGL DEVELOPMENT\DREAMEATER\GAME\GAME\PLAYERCONTROLSWITCH.CPP
^W:\STUDENT\2017-18\ST20123567\OPENGL DEVELOPMENT\DREAMEATER\GAME\GAME\PLAYERMOVEMENT.CPP
/c /ZI /nologo /W3 /WX- /diagnostics:classic /sdl- /Od /Oy- /D WIN32 /D _DEBUG /D _CONSOLE /D _LIB /D _UNICODE /D UNICODE /Gm- /EHsc /RTC1 /MDd /GS /fp:precise /Zc:wchar_t /Zc:forScope /Zc:inline /Fo"DEBUG\\" /Fd"DEBUG\VC141.PDB" /Gd /TP /analyze- /FC W:\STUDENT\2017-18\ST20123567\OPENGL DEVELOPMENT\DREAMEATER\GAME\GAME\PLAYERMOVEMENT.CPP
^W:\STUDENT\2017-18\ST20123567\OPENGL DEVELOPMENT\DREAMEATER\GAME\GAME\RECOMPILESHADERS.CPP
/c /ZI /nologo /W3 /WX- /diagnostics:classic /sdl- /Od /Oy- /D WIN32 /D _DEBUG /D _CONSOLE /D _LIB /D _UNICODE /D UNICODE /Gm- /EHsc /RTC1 /MDd /GS /fp:precise /Zc:wchar_t /Zc:forScope /Zc:inline /Fo"DEBUG\\" /Fd"DEBUG\VC141.PDB" /Gd /TP /analyze- /FC W:\STUDENT\2017-18\ST20123567\OPENGL DEVELOPMENT\DREAMEATER\GAME\GAME\RECOMPILESHADERS.CPP
^W:\STUDENT\2017-18\ST20123567\OPENGL DEVELOPMENT\DREAMEATER\GAME\GAME\ROAMBEHAVIOUR.CPP
/c /ZI /nologo /W3 /WX- /diagnostics:classic /sdl- /Od /Oy- /D WIN32 /D _DEBUG /D _CONSOLE /D _LIB /D _UNICODE /D UNICODE /Gm- /EHsc /RTC1 /MDd /GS /fp:precise /Zc:wchar_t /Zc:forScope /Zc:inline /Fo"DEBUG\\" /Fd"DEBUG\VC141.PDB" /Gd /TP /analyze- /FC W:\STUDENT\2017-18\ST20123567\OPENGL DEVELOPMENT\DREAMEATER\GAME\GAME\ROAMBEHAVIOUR.CPP
^W:\STUDENT\2017-18\ST20123567\OPENGL DEVELOPMENT\DREAMEATER\GAME\GAME\STARTGAME.CPP
/c /ZI /nologo /W3 /WX- /diagnostics:classic /sdl- /Od /Oy- /D WIN32 /D _DEBUG /D _CONSOLE /D _LIB /D _UNICODE /D UNICODE /Gm- /EHsc /RTC1 /MDd /GS /fp:precise /Zc:wchar_t /Zc:forScope /Zc:inline /Fo"DEBUG\\" /Fd"DEBUG\VC141.PDB" /Gd /TP /analyze- /FC W:\STUDENT\2017-18\ST20123567\OPENGL DEVELOPMENT\DREAMEATER\GAME\GAME\STARTGAME.CPP
^W:\STUDENT\2017-18\ST20123567\OPENGL DEVELOPMENT\DREAMEATER\GAME\GAME\TRACKCOLOUREDAREA.CPP
/c /ZI /nologo /W3 /WX- /diagnostics:classic /sdl- /Od /Oy- /D WIN32 /D _DEBUG /D _CONSOLE /D _LIB /D _UNICODE /D UNICODE /Gm- /EHsc /RTC1 /MDd /GS /fp:precise /Zc:wchar_t /Zc:forScope /Zc:inline /Fo"DEBUG\\" /Fd"DEBUG\VC141.PDB" /Gd /TP /analyze- /FC W:\STUDENT\2017-18\ST20123567\OPENGL DEVELOPMENT\DREAMEATER\GAME\GAME\TRACKCOLOUREDAREA.CPP
^W:\STUDENT\2017-18\ST20123567\OPENGL DEVELOPMENT\DREAMEATER\GAME\GAME\WORLD.CPP
/c /ZI /nologo /W3 /WX- /diagnostics:classic /sdl- /Od /Oy- /D WIN32 /D _DEBUG /D _CONSOLE /D _LIB /D _UNICODE /D UNICODE /Gm- /EHsc /RTC1 /MDd /GS /fp:precise /Zc:wchar_t /Zc:forScope /Zc:inline /Fo"DEBUG\\" /Fd"DEBUG\VC141.PDB" /Gd /TP /analyze- /FC W:\STUDENT\2017-18\ST20123567\OPENGL DEVELOPMENT\DREAMEATER\GAME\GAME\WORLD.CPP
^W:\STUDENT\2017-18\ST20123567\OPENGL DEVELOPMENT\DREAMEATER\GAME\GAME\MAIN.CPP
/c /ZI /nologo /W3 /WX- /diagnostics:classic /sdl- /Od /Oy- /D WIN32 /D _DEBUG /D _CONSOLE /D _LIB /D _UNICODE /D UNICODE /Gm- /EHsc /RTC1 /MDd /GS /fp:precise /Zc:wchar_t /Zc:forScope /Zc:inline /Fo"DEBUG\\" /Fd"DEBUG\VC141.PDB" /Gd /TP /analyze- /FC W:\STUDENT\2017-18\ST20123567\OPENGL DEVELOPMENT\DREAMEATER\GAME\GAME\MAIN.CPP
^W:\STUDENT\2017-18\ST20123567\OPENGL DEVELOPMENT\DREAMEATER\GAME\GAME\ENEMYSPAWNER.CPP
/c /ZI /nologo /W3 /WX- /diagnostics:classic /sdl- /Od /Oy- /D WIN32 /D _DEBUG /D _CONSOLE /D _LIB /D _UNICODE /D UNICODE /Gm- /EHsc /RTC1 /MDd /GS /fp:precise /Zc:wchar_t /Zc:forScope /Zc:inline /Fo"DEBUG\\" /Fd"DEBUG\VC141.PDB" /Gd /TP /analyze- /FC W:\STUDENT\2017-18\ST20123567\OPENGL DEVELOPMENT\DREAMEATER\GAME\GAME\ENEMYSPAWNER.CPP
^W:\STUDENT\2017-18\ST20123567\OPENGL DEVELOPMENT\DREAMEATER\GAME\GAME\ATTACKABLEOBJECT.CPP
/c /ZI /nologo /W3 /WX- /diagnostics:classic /sdl- /Od /Oy- /D WIN32 /D _DEBUG /D _CONSOLE /D _LIB /D _UNICODE /D UNICODE /Gm- /EHsc /RTC1 /MDd /GS /fp:precise /Zc:wchar_t /Zc:forScope /Zc:inline /Fo"DEBUG\\" /Fd"DEBUG\VC141.PDB" /Gd /TP /analyze- /FC W:\STUDENT\2017-18\ST20123567\OPENGL DEVELOPMENT\DREAMEATER\GAME\GAME\ATTACKABLEOBJECT.CPP
^W:\STUDENT\2017-18\ST20119815\DREAMEATER\GAME\GAME\PROJECTILECREATOR.CPP
/c /ZI /nologo /W3 /WX- /diagnostics:classic /sdl- /Od /Oy- /D WIN32 /D _DEBUG /D _CONSOLE /D _LIB /D _UNICODE /D UNICODE /Gm- /EHsc /RTC1 /MDd /GS /fp:precise /Zc:wchar_t /Zc:forScope /Zc:inline /Fo"DEBUG\\" /Fd"DEBUG\VC141.PDB" /Gd /TP /analyze- /FC W:\STUDENT\2017-18\ST20119815\DREAMEATER\GAME\GAME\PROJECTILECREATOR.CPP
^W:\STUDENT\2017-18\ST20119815\DREAMEATER\GAME\GAME\CARA.CPP
/c /ZI /nologo /W3 /WX- /diagnostics:classic /sdl- /Od /Oy- /D WIN32 /D _DEBUG /D _CONSOLE /D _LIB /D _UNICODE /D UNICODE /Gm- /EHsc /RTC1 /MDd /GS /fp:precise /Zc:wchar_t /Zc:forScope /Zc:inline /Fo"DEBUG\\" /Fd"DEBUG\VC141.PDB" /Gd /TP /analyze- /FC W:\STUDENT\2017-18\ST20119815\DREAMEATER\GAME\GAME\CARA.CPP
^W:\STUDENT\2017-18\ST20119815\DREAMEATER\GAME\GAME\DREAMCAMERA.CPP
/c /ZI /nologo /W3 /WX- /diagnostics:classic /sdl- /Od /Oy- /D WIN32 /D _DEBUG /D _CONSOLE /D _LIB /D _UNICODE /D UNICODE /Gm- /EHsc /RTC1 /MDd /GS /fp:precise /Zc:wchar_t /Zc:forScope /Zc:inline /Fo"DEBUG\\" /Fd"DEBUG\VC141.PDB" /Gd /TP /analyze- /FC W:\STUDENT\2017-18\ST20119815\DREAMEATER\GAME\GAME\DREAMCAMERA.CPP
^W:\STUDENT\2017-18\ST20119815\DREAMEATER\GAME\GAME\DREAMCUSTOM.CPP
/c /ZI /nologo /W3 /WX- /diagnostics:classic /sdl- /Od /Oy- /D WIN32 /D _DEBUG /D _CONSOLE /D _LIB /D _UNICODE /D UNICODE /Gm- /EHsc /RTC1 /MDd /GS /fp:precise /Zc:wchar_t /Zc:forScope /Zc:inline /Fo"DEBUG\\" /Fd"DEBUG\VC141.PDB" /Gd /TP /analyze- /FC W:\STUDENT\2017-18\ST20119815\DREAMEATER\GAME\GAME\DREAMCUSTOM.CPP
^W:\STUDENT\2017-18\ST20119815\DREAMEATER\GAME\GAME\DREAMEATERSHADER.CPP
/c /ZI /nologo /W3 /WX- /diagnostics:classic /sdl- /Od /Oy- /D WIN32 /D _DEBUG /D _CONSOLE /D _LIB /D _UNICODE /D UNICODE /Gm- /EHsc /RTC1 /MDd /GS /fp:precise /Zc:wchar_t /Zc:forScope /Zc:inline /Fo"DEBUG\\" /Fd"DEBUG\VC141.PDB" /Gd /TP /analyze- /FC W:\STUDENT\2017-18\ST20119815\DREAMEATER\GAME\GAME\DREAMEATERSHADER.CPP
^W:\STUDENT\2017-18\ST20119815\DREAMEATER\GAME\GAME\DREAMEATERTERRAINTEXTURES.CPP
/c /ZI /nologo /W3 /WX- /diagnostics:classic /sdl- /Od /Oy- /D WIN32 /D _DEBUG /D _CONSOLE /D _LIB /D _UNICODE /D UNICODE /Gm- /EHsc /RTC1 /MDd /GS /fp:precise /Zc:wchar_t /Zc:forScope /Zc:inline /Fo"DEBUG\\" /Fd"DEBUG\VC141.PDB" /Gd /TP /analyze- /FC W:\STUDENT\2017-18\ST20119815\DREAMEATER\GAME\GAME\DREAMEATERTERRAINTEXTURES.CPP
^W:\STUDENT\2017-18\ST20119815\DREAMEATER\GAME\GAME\DREAMINSTANCED.CPP
/c /ZI /nologo /W3 /WX- /diagnostics:classic /sdl- /Od /Oy- /D WIN32 /D _DEBUG /D _CONSOLE /D _LIB /D _UNICODE /D UNICODE /Gm- /EHsc /RTC1 /MDd /GS /fp:precise /Zc:wchar_t /Zc:forScope /Zc:inline /Fo"DEBUG\\" /Fd"DEBUG\VC141.PDB" /Gd /TP /analyze- /FC W:\STUDENT\2017-18\ST20119815\DREAMEATER\GAME\GAME\DREAMINSTANCED.CPP
^W:\STUDENT\2017-18\ST20119815\DREAMEATER\GAME\GAME\DREAMOBJECTFACTORY.CPP
/c /ZI /nologo /W3 /WX- /diagnostics:classic /sdl- /Od /Oy- /D WIN32 /D _DEBUG /D _CONSOLE /D _LIB /D _UNICODE /D UNICODE /Gm- /EHsc /RTC1 /MDd /GS /fp:precise /Zc:wchar_t /Zc:forScope /Zc:inline /Fo"DEBUG\\" /Fd"DEBUG\VC141.PDB" /Gd /TP /analyze- /FC W:\STUDENT\2017-18\ST20119815\DREAMEATER\GAME\GAME\DREAMOBJECTFACTORY.CPP
^W:\STUDENT\2017-18\ST20119815\DREAMEATER\GAME\GAME\DREAMTERRAIN.CPP
/c /ZI /nologo /W3 /WX- /diagnostics:classic /sdl- /Od /Oy- /D WIN32 /D _DEBUG /D _CONSOLE /D _LIB /D _UNICODE /D UNICODE /Gm- /EHsc /RTC1 /MDd /GS /fp:precise /Zc:wchar_t /Zc:forScope /Zc:inline /Fo"DEBUG\\" /Fd"DEBUG\VC141.PDB" /Gd /TP /analyze- /FC W:\STUDENT\2017-18\ST20119815\DREAMEATER\GAME\GAME\DREAMTERRAIN.CPP
^W:\STUDENT\2017-18\ST20119815\DREAMEATER\GAME\GAME\DREAMTERRAINSHADERS.CPP
/c /ZI /nologo /W3 /WX- /diagnostics:classic /sdl- /Od /Oy- /D WIN32 /D _DEBUG /D _CONSOLE /D _LIB /D _UNICODE /D UNICODE /Gm- /EHsc /RTC1 /MDd /GS /fp:precise /Zc:wchar_t /Zc:forScope /Zc:inline /Fo"DEBUG\\" /Fd"DEBUG\VC141.PDB" /Gd /TP /analyze- /FC W:\STUDENT\2017-18\ST20119815\DREAMEATER\GAME\GAME\DREAMTERRAINSHADERS.CPP
^W:\STUDENT\2017-18\ST20119815\DREAMEATER\GAME\GAME\ENTITYSHADERS.CPP
/c /ZI /nologo /W3 /WX- /diagnostics:classic /sdl- /Od /Oy- /D WIN32 /D _DEBUG /D _CONSOLE /D _LIB /D _UNICODE /D UNICODE /Gm- /EHsc /RTC1 /MDd /GS /fp:precise /Zc:wchar_t /Zc:forScope /Zc:inline /Fo"DEBUG\\" /Fd"DEBUG\VC141.PDB" /Gd /TP /analyze- /FC W:\STUDENT\2017-18\ST20119815\DREAMEATER\GAME\GAME\ENTITYSHADERS.CPP
^W:\STUDENT\2017-18\ST20119815\DREAMEATER\GAME\GAME\INSTANCEDSHADER.CPP
/c /ZI /nologo /W3 /WX- /diagnostics:classic /sdl- /Od /Oy- /D WIN32 /D _DEBUG /D _CONSOLE /D _LIB /D _UNICODE /D UNICODE /Gm- /EHsc /RTC1 /MDd /GS /fp:precise /Zc:wchar_t /Zc:forScope /Zc:inline /Fo"DEBUG\\" /Fd"DEBUG\VC141.PDB" /Gd /TP /analyze- /FC W:\STUDENT\2017-18\ST20119815\DREAMEATER\GAME\GAME\INSTANCEDSHADER.CPP
^W:\STUDENT\2017-18\ST20119815\DREAMEATER\GAME\GAME\KEYBOARDMOVE.CPP
/c /ZI /nologo /W3 /WX- /diagnostics:classic /sdl- /Od /Oy- /D WIN32 /D _DEBUG /D _CONSOLE /D _LIB /D _UNICODE /D UNICODE /Gm- /EHsc /RTC1 /MDd /GS /fp:precise /Zc:wchar_t /Zc:forScope /Zc:inline /Fo"DEBUG\\" /Fd"DEBUG\VC141.PDB" /Gd /TP /analyze- /FC W:\STUDENT\2017-18\ST20119815\DREAMEATER\GAME\GAME\KEYBOARDMOVE.CPP
^W:\STUDENT\2017-18\ST20119815\DREAMEATER\GAME\GAME\MAIN.CPP
/c /ZI /nologo /W3 /WX- /diagnostics:classic /sdl- /Od /Oy- /D WIN32 /D _DEBUG /D _CONSOLE /D _LIB /D _UNICODE /D UNICODE /Gm- /EHsc /RTC1 /MDd /GS /fp:precise /Zc:wchar_t /Zc:forScope /Zc:inline /Fo"DEBUG\\" /Fd"DEBUG\VC141.PDB" /Gd /TP /analyze- /FC W:\STUDENT\2017-18\ST20119815\DREAMEATER\GAME\GAME\MAIN.CPP
^W:\STUDENT\2017-18\ST20119815\DREAMEATER\GAME\GAME\MAINMENU.CPP
/c /ZI /nologo /W3 /WX- /diagnostics:classic /sdl- /Od /Oy- /D WIN32 /D _DEBUG /D _CONSOLE /D _LIB /D _UNICODE /D UNICODE /Gm- /EHsc /RTC1 /MDd /GS /fp:precise /Zc:wchar_t /Zc:forScope /Zc:inline /Fo"DEBUG\\" /Fd"DEBUG\VC141.PDB" /Gd /TP /analyze- /FC W:\STUDENT\2017-18\ST20119815\DREAMEATER\GAME\GAME\MAINMENU.CPP
^W:\STUDENT\2017-18\ST20119815\DREAMEATER\GAME\GAME\PLAYERCONTROLSWITCH.CPP
/c /ZI /nologo /W3 /WX- /diagnostics:classic /sdl- /Od /Oy- /D WIN32 /D _DEBUG /D _CONSOLE /D _LIB /D _UNICODE /D UNICODE /Gm- /EHsc /RTC1 /MDd /GS /fp:precise /Zc:wchar_t /Zc:forScope /Zc:inline /Fo"DEBUG\\" /Fd"DEBUG\VC141.PDB" /Gd /TP /analyze- /FC W:\STUDENT\2017-18\ST20119815\DREAMEATER\GAME\GAME\PLAYERCONTROLSWITCH.CPP
^W:\STUDENT\2017-18\ST20119815\DREAMEATER\GAME\GAME\PLAYERMOVEMENT.CPP
/c /ZI /nologo /W3 /WX- /diagnostics:classic /sdl- /Od /Oy- /D WIN32 /D _DEBUG /D _CONSOLE /D _LIB /D _UNICODE /D UNICODE /Gm- /EHsc /RTC1 /MDd /GS /fp:precise /Zc:wchar_t /Zc:forScope /Zc:inline /Fo"DEBUG\\" /Fd"DEBUG\VC141.PDB" /Gd /TP /analyze- /FC W:\STUDENT\2017-18\ST20119815\DREAMEATER\GAME\GAME\PLAYERMOVEMENT.CPP
^W:\STUDENT\2017-18\ST20119815\DREAMEATER\GAME\GAME\RECOMPILESHADERS.CPP
/c /ZI /nologo /W3 /WX- /diagnostics:classic /sdl- /Od /Oy- /D WIN32 /D _DEBUG /D _CONSOLE /D _LIB /D _UNICODE /D UNICODE /Gm- /EHsc /RTC1 /MDd /GS /fp:precise /Zc:wchar_t /Zc:forScope /Zc:inline /Fo"DEBUG\\" /Fd"DEBUG\VC141.PDB" /Gd /TP /analyze- /FC W:\STUDENT\2017-18\ST20119815\DREAMEATER\GAME\GAME\RECOMPILESHADERS.CPP
^W:\STUDENT\2017-18\ST20119815\DREAMEATER\GAME\GAME\ROAMBEHAVIOUR.CPP
/c /ZI /nologo /W3 /WX- /diagnostics:classic /sdl- /Od /Oy- /D WIN32 /D _DEBUG /D _CONSOLE /D _LIB /D _UNICODE /D UNICODE /Gm- /EHsc /RTC1 /MDd /GS /fp:precise /Zc:wchar_t /Zc:forScope /Zc:inline /Fo"DEBUG\\" /Fd"DEBUG\VC141.PDB" /Gd /TP /analyze- /FC W:\STUDENT\2017-18\ST20119815\DREAMEATER\GAME\GAME\ROAMBEHAVIOUR.CPP
^W:\STUDENT\2017-18\ST20119815\DREAMEATER\GAME\GAME\STARTGAME.CPP
/c /ZI /nologo /W3 /WX- /diagnostics:classic /sdl- /Od /Oy- /D WIN32 /D _DEBUG /D _CONSOLE /D _LIB /D _UNICODE /D UNICODE /Gm- /EHsc /RTC1 /MDd /GS /fp:precise /Zc:wchar_t /Zc:forScope /Zc:inline /Fo"DEBUG\\" /Fd"DEBUG\VC141.PDB" /Gd /TP /analyze- /FC W:\STUDENT\2017-18\ST20119815\DREAMEATER\GAME\GAME\STARTGAME.CPP
^W:\STUDENT\2017-18\ST20119815\DREAMEATER\GAME\GAME\ATTACKABLEOBJECT.CPP
/c /ZI /nologo /W3 /WX- /diagnostics:classic /sdl- /Od /Oy- /D WIN32 /D _DEBUG /D _CONSOLE /D _LIB /D _UNICODE /D UNICODE /Gm- /EHsc /RTC1 /MDd /GS /fp:precise /Zc:wchar_t /Zc:forScope /Zc:inline /Fo"DEBUG\\" /Fd"DEBUG\VC141.PDB" /Gd /TP /analyze- /FC W:\STUDENT\2017-18\ST20119815\DREAMEATER\GAME\GAME\ATTACKABLEOBJECT.CPP
^W:\STUDENT\2017-18\ST20119815\DREAMEATER\GAME\GAME\ENEMYMINION.CPP
/c /ZI /nologo /W3 /WX- /diagnostics:classic /sdl- /Od /Oy- /D WIN32 /D _DEBUG /D _CONSOLE /D _LIB /D _UNICODE /D UNICODE /Gm- /EHsc /RTC1 /MDd /GS /fp:precise /Zc:wchar_t /Zc:forScope /Zc:inline /Fo"DEBUG\\" /Fd"DEBUG\VC141.PDB" /Gd /TP /analyze- /FC W:\STUDENT\2017-18\ST20119815\DREAMEATER\GAME\GAME\ENEMYMINION.CPP
^W:\STUDENT\2017-18\ST20119815\DREAMEATER\GAME\GAME\ENEMYPOOL.CPP
/c /ZI /nologo /W3 /WX- /diagnostics:classic /sdl- /Od /Oy- /D WIN32 /D _DEBUG /D _CONSOLE /D _LIB /D _UNICODE /D UNICODE /Gm- /EHsc /RTC1 /MDd /GS /fp:precise /Zc:wchar_t /Zc:forScope /Zc:inline /Fo"DEBUG\\" /Fd"DEBUG\VC141.PDB" /Gd /TP /analyze- /FC W:\STUDENT\2017-18\ST20119815\DREAMEATER\GAME\GAME\ENEMYPOOL.CPP
^W:\STUDENT\2017-18\ST20119815\DREAMEATER\GAME\GAME\ENEMYSPAWNER.CPP
/c /ZI /nologo /W3 /WX- /diagnostics:classic /sdl- /Od /Oy- /D WIN32 /D _DEBUG /D _CONSOLE /D _LIB /D _UNICODE /D UNICODE /Gm- /EHsc /RTC1 /MDd /GS /fp:precise /Zc:wchar_t /Zc:forScope /Zc:inline /Fo"DEBUG\\" /Fd"DEBUG\VC141.PDB" /Gd /TP /analyze- /FC W:\STUDENT\2017-18\ST20119815\DREAMEATER\GAME\GAME\ENEMYSPAWNER.CPP
^W:\STUDENT\2017-18\ST20119815\DREAMEATER\GAME\GAME\PLAYER.CPP
/c /ZI /nologo /W3 /WX- /diagnostics:classic /sdl- /Od /Oy- /D WIN32 /D _DEBUG /D _CONSOLE /D _LIB /D _UNICODE /D UNICODE /Gm- /EHsc /RTC1 /MDd /GS /fp:precise /Zc:wchar_t /Zc:forScope /Zc:inline /Fo"DEBUG\\" /Fd"DEBUG\VC141.PDB" /Gd /TP /analyze- /FC W:\STUDENT\2017-18\ST20119815\DREAMEATER\GAME\GAME\PLAYER.CPP
^W:\STUDENT\2017-18\ST20119815\DREAMEATER\GAME\GAME\TRACKCOLOUREDAREA.CPP
/c /ZI /nologo /W3 /WX- /diagnostics:classic /sdl- /Od /Oy- /D WIN32 /D _DEBUG /D _CONSOLE /D _LIB /D _UNICODE /D UNICODE /Gm- /EHsc /RTC1 /MDd /GS /fp:precise /Zc:wchar_t /Zc:forScope /Zc:inline /Fo"DEBUG\\" /Fd"DEBUG\VC141.PDB" /Gd /TP /analyze- /FC W:\STUDENT\2017-18\ST20119815\DREAMEATER\GAME\GAME\TRACKCOLOUREDAREA.CPP
^W:\STUDENT\2017-18\ST20119815\DREAMEATER\GAME\GAME\WORLD.CPP
/c /ZI /nologo /W3 /WX- /diagnostics:classic /sdl- /Od /Oy- /D WIN32 /D _DEBUG /D _CONSOLE /D _LIB /D _UNICODE /D UNICODE /Gm- /EHsc /RTC1 /MDd /GS /fp:precise /Zc:wchar_t /Zc:forScope /Zc:inline /Fo"DEBUG\\" /Fd"DEBUG\VC141.PDB" /Gd /TP /analyze- /FC W:\STUDENT\2017-18\ST20119815\DREAMEATER\GAME\GAME\WORLD.CPP
^E:\DESKTOP\ON GOING PROJECTS\DREAMEATER\GAME\GAME\DREAMEATERTERRAINTEXTURES.CPP
/c /ZI /nologo /W3 /WX- /diagnostics:classic /sdl- /Od /Oy- /D WIN32 /D _DEBUG /D _CONSOLE /D _LIB /D _UNICODE /D UNICODE /Gm- /EHsc /RTC1 /MDd /GS /fp:precise /Zc:wchar_t /Zc:forScope /Zc:inline /Fo"DEBUG\\" /Fd"DEBUG\VC141.PDB" /Gd /TP /analyze- /FC E:\DESKTOP\ON GOING PROJECTS\DREAMEATER\GAME\GAME\DREAMEATERTERRAINTEXTURES.CPP
^E:\DESKTOP\ON GOING PROJECTS\DREAMEATER\GAME\GAME\PROJECTILECREATOR.CPP
/c /ZI /nologo /W3 /WX- /diagnostics:classic /sdl- /Od /Oy- /D WIN32 /D _DEBUG /D _CONSOLE /D _LIB /D _UNICODE /D UNICODE /Gm- /EHsc /RTC1 /MDd /GS /fp:precise /Zc:wchar_t /Zc:forScope /Zc:inline /Fo"DEBUG\\" /Fd"DEBUG\VC141.PDB" /Gd /TP /analyze- /FC E:\DESKTOP\ON GOING PROJECTS\DREAMEATER\GAME\GAME\PROJECTILECREATOR.CPP
^E:\DESKTOP\ON GOING PROJECTS\DREAMEATER\GAME\GAME\KEYBOARDMOVE.CPP
/c /ZI /nologo /W3 /WX- /diagnostics:classic /sdl- /Od /Oy- /D WIN32 /D _DEBUG /D _CONSOLE /D _LIB /D _UNICODE /D UNICODE /Gm- /EHsc /RTC1 /MDd /GS /fp:precise /Zc:wchar_t /Zc:forScope /Zc:inline /Fo"DEBUG\\" /Fd"DEBUG\VC141.PDB" /Gd /TP /analyze- /FC E:\DESKTOP\ON GOING PROJECTS\DREAMEATER\GAME\GAME\KEYBOARDMOVE.CPP
^E:\DESKTOP\ON GOING PROJECTS\DREAMEATER\GAME\GAME\MAINMENU.CPP
/c /ZI /nologo /W3 /WX- /diagnostics:classic /sdl- /Od /Oy- /D WIN32 /D _DEBUG /D _CONSOLE /D _LIB /D _UNICODE /D UNICODE /Gm- /EHsc /RTC1 /MDd /GS /fp:precise /Zc:wchar_t /Zc:forScope /Zc:inline /Fo"DEBUG\\" /Fd"DEBUG\VC141.PDB" /Gd /TP /analyze- /FC E:\DESKTOP\ON GOING PROJECTS\DREAMEATER\GAME\GAME\MAINMENU.CPP
^E:\DESKTOP\ON GOING PROJECTS\DREAMEATER\GAME\GAME\PLAYERCONTROLSWITCH.CPP
/c /ZI /nologo /W3 /WX- /diagnostics:classic /sdl- /Od /Oy- /D WIN32 /D _DEBUG /D _CONSOLE /D _LIB /D _UNICODE /D UNICODE /Gm- /EHsc /RTC1 /MDd /GS /fp:precise /Zc:wchar_t /Zc:forScope /Zc:inline /Fo"DEBUG\\" /Fd"DEBUG\VC141.PDB" /Gd /TP /analyze- /FC E:\DESKTOP\ON GOING PROJECTS\DREAMEATER\GAME\GAME\PLAYERCONTROLSWITCH.CPP
^E:\DESKTOP\ON GOING PROJECTS\DREAMEATER\GAME\GAME\ROAMBEHAVIOUR.CPP
/c /ZI /nologo /W3 /WX- /diagnostics:classic /sdl- /Od /Oy- /D WIN32 /D _DEBUG /D _CONSOLE /D _LIB /D _UNICODE /D UNICODE /Gm- /EHsc /RTC1 /MDd /GS /fp:precise /Zc:wchar_t /Zc:forScope /Zc:inline /Fo"DEBUG\\" /Fd"DEBUG\VC141.PDB" /Gd /TP /analyze- /FC E:\DESKTOP\ON GOING PROJECTS\DREAMEATER\GAME\GAME\ROAMBEHAVIOUR.CPP
^E:\DESKTOP\ON GOING PROJECTS\DREAMEATER\GAME\GAME\STARTGAME.CPP
/c /ZI /nologo /W3 /WX- /diagnostics:classic /sdl- /Od /Oy- /D WIN32 /D _DEBUG /D _CONSOLE /D _LIB /D _UNICODE /D UNICODE /Gm- /EHsc /RTC1 /MDd /GS /fp:precise /Zc:wchar_t /Zc:forScope /Zc:inline /Fo"DEBUG\\" /Fd"DEBUG\VC141.PDB" /Gd /TP /analyze- /FC E:\DESKTOP\ON GOING PROJECTS\DREAMEATER\GAME\GAME\STARTGAME.CPP
^E:\DESKTOP\ON GOING PROJECTS\DREAMEATER\GAME\GAME\MAIN.CPP
/c /ZI /nologo /W3 /WX- /diagnostics:classic /sdl- /Od /Oy- /D WIN32 /D _DEBUG /D _CONSOLE /D _LIB /D _UNICODE /D UNICODE /Gm- /EHsc /RTC1 /MDd /GS /fp:precise /Zc:wchar_t /Zc:forScope /Zc:inline /Fo"DEBUG\\" /Fd"DEBUG\VC141.PDB" /Gd /TP /analyze- /FC E:\DESKTOP\ON GOING PROJECTS\DREAMEATER\GAME\GAME\MAIN.CPP
^E:\DESKTOP\ON GOING PROJECTS\DREAMEATER\GAME\GAME\ATTACKABLEOBJECT.CPP
/c /ZI /nologo /W3 /WX- /diagnostics:classic /sdl- /Od /Oy- /D WIN32 /D _DEBUG /D _CONSOLE /D _LIB /D _UNICODE /D UNICODE /Gm- /EHsc /RTC1 /MDd /GS /fp:precise /Zc:wchar_t /Zc:forScope /Zc:inline /Fo"DEBUG\\" /Fd"DEBUG\VC141.PDB" /Gd /TP /analyze- /FC E:\DESKTOP\ON GOING PROJECTS\DREAMEATER\GAME\GAME\ATTACKABLEOBJECT.CPP
^E:\DESKTOP\ON GOING PROJECTS\DREAMEATER\GAME\GAME\CARA.CPP
/c /ZI /nologo /W3 /WX- /diagnostics:classic /sdl- /Od /Oy- /D WIN32 /D _DEBUG /D _CONSOLE /D _LIB /D _UNICODE /D UNICODE /Gm- /EHsc /RTC1 /MDd /GS /fp:precise /Zc:wchar_t /Zc:forScope /Zc:inline /Fo"DEBUG\\" /Fd"DEBUG\VC141.PDB" /Gd /TP /analyze- /FC E:\DESKTOP\ON GOING PROJECTS\DREAMEATER\GAME\GAME\CARA.CPP
^E:\DESKTOP\ON GOING PROJECTS\DREAMEATER\GAME\GAME\DREAMCUSTOM.CPP
/c /ZI /nologo /W3 /WX- /diagnostics:classic /sdl- /Od /Oy- /D WIN32 /D _DEBUG /D _CONSOLE /D _LIB /D _UNICODE /D UNICODE /Gm- /EHsc /RTC1 /MDd /GS /fp:precise /Zc:wchar_t /Zc:forScope /Zc:inline /Fo"DEBUG\\" /Fd"DEBUG\VC141.PDB" /Gd /TP /analyze- /FC E:\DESKTOP\ON GOING PROJECTS\DREAMEATER\GAME\GAME\DREAMCUSTOM.CPP
^E:\DESKTOP\ON GOING PROJECTS\DREAMEATER\GAME\GAME\DREAMINSTANCED.CPP
/c /ZI /nologo /W3 /WX- /diagnostics:classic /sdl- /Od /Oy- /D WIN32 /D _DEBUG /D _CONSOLE /D _LIB /D _UNICODE /D UNICODE /Gm- /EHsc /RTC1 /MDd /GS /fp:precise /Zc:wchar_t /Zc:forScope /Zc:inline /Fo"DEBUG\\" /Fd"DEBUG\VC141.PDB" /Gd /TP /analyze- /FC E:\DESKTOP\ON GOING PROJECTS\DREAMEATER\GAME\GAME\DREAMINSTANCED.CPP
^E:\DESKTOP\ON GOING PROJECTS\DREAMEATER\GAME\GAME\DREAMOBJECTFACTORY.CPP
/c /ZI /nologo /W3 /WX- /diagnostics:classic /sdl- /Od /Oy- /D WIN32 /D _DEBUG /D _CONSOLE /D _LIB /D _UNICODE /D UNICODE /Gm- /EHsc /RTC1 /MDd /GS /fp:precise /Zc:wchar_t /Zc:forScope /Zc:inline /Fo"DEBUG\\" /Fd"DEBUG\VC141.PDB" /Gd /TP /analyze- /FC E:\DESKTOP\ON GOING PROJECTS\DREAMEATER\GAME\GAME\DREAMOBJECTFACTORY.CPP
^E:\DESKTOP\ON GOING PROJECTS\DREAMEATER\GAME\GAME\DREAMTERRAIN.CPP
/c /ZI /nologo /W3 /WX- /diagnostics:classic /sdl- /Od /Oy- /D WIN32 /D _DEBUG /D _CONSOLE /D _LIB /D _UNICODE /D UNICODE /Gm- /EHsc /RTC1 /MDd /GS /fp:precise /Zc:wchar_t /Zc:forScope /Zc:inline /Fo"DEBUG\\" /Fd"DEBUG\VC141.PDB" /Gd /TP /analyze- /FC E:\DESKTOP\ON GOING PROJECTS\DREAMEATER\GAME\GAME\DREAMTERRAIN.CPP
^E:\DESKTOP\ON GOING PROJECTS\DREAMEATER\GAME\GAME\DREAMTERRAINSHADERS.CPP
/c /ZI /nologo /W3 /WX- /diagnostics:classic /sdl- /Od /Oy- /D WIN32 /D _DEBUG /D _CONSOLE /D _LIB /D _UNICODE /D UNICODE /Gm- /EHsc /RTC1 /MDd /GS /fp:precise /Zc:wchar_t /Zc:forScope /Zc:inline /Fo"DEBUG\\" /Fd"DEBUG\VC141.PDB" /Gd /TP /analyze- /FC E:\DESKTOP\ON GOING PROJECTS\DREAMEATER\GAME\GAME\DREAMTERRAINSHADERS.CPP
^E:\DESKTOP\ON GOING PROJECTS\DREAMEATER\GAME\GAME\DREAMEATERSHADER.CPP
/c /ZI /nologo /W3 /WX- /diagnostics:classic /sdl- /Od /Oy- /D WIN32 /D _DEBUG /D _CONSOLE /D _LIB /D _UNICODE /D UNICODE /Gm- /EHsc /RTC1 /MDd /GS /fp:precise /Zc:wchar_t /Zc:forScope /Zc:inline /Fo"DEBUG\\" /Fd"DEBUG\VC141.PDB" /Gd /TP /analyze- /FC E:\DESKTOP\ON GOING PROJECTS\DREAMEATER\GAME\GAME\DREAMEATERSHADER.CPP
^E:\DESKTOP\ON GOING PROJECTS\DREAMEATER\GAME\GAME\ENEMYMINION.CPP
/c /ZI /nologo /W3 /WX- /diagnostics:classic /sdl- /Od /Oy- /D WIN32 /D _DEBUG /D _CONSOLE /D _LIB /D _UNICODE /D UNICODE /Gm- /EHsc /RTC1 /MDd /GS /fp:precise /Zc:wchar_t /Zc:forScope /Zc:inline /Fo"DEBUG\\" /Fd"DEBUG\VC141.PDB" /Gd /TP /analyze- /FC E:\DESKTOP\ON GOING PROJECTS\DREAMEATER\GAME\GAME\ENEMYMINION.CPP
^E:\DESKTOP\ON GOING PROJECTS\DREAMEATER\GAME\GAME\ENEMYPOOL.CPP
/c /ZI /nologo /W3 /WX- /diagnostics:classic /sdl- /Od /Oy- /D WIN32 /D _DEBUG /D _CONSOLE /D _LIB /D _UNICODE /D UNICODE /Gm- /EHsc /RTC1 /MDd /GS /fp:precise /Zc:wchar_t /Zc:forScope /Zc:inline /Fo"DEBUG\\" /Fd"DEBUG\VC141.PDB" /Gd /TP /analyze- /FC E:\DESKTOP\ON GOING PROJECTS\DREAMEATER\GAME\GAME\ENEMYPOOL.CPP
^E:\DESKTOP\ON GOING PROJECTS\DREAMEATER\GAME\GAME\ENEMYSPAWNER.CPP
/c /ZI /nologo /W3 /WX- /diagnostics:classic /sdl- /Od /Oy- /D WIN32 /D _DEBUG /D _CONSOLE /D _LIB /D _UNICODE /D UNICODE /Gm- /EHsc /RTC1 /MDd /GS /fp:precise /Zc:wchar_t /Zc:forScope /Zc:inline /Fo"DEBUG\\" /Fd"DEBUG\VC141.PDB" /Gd /TP /analyze- /FC E:\DESKTOP\ON GOING PROJECTS\DREAMEATER\GAME\GAME\ENEMYSPAWNER.CPP
^E:\DESKTOP\ON GOING PROJECTS\DREAMEATER\GAME\GAME\ENTITYSHADERS.CPP
/c /ZI /nologo /W3 /WX- /diagnostics:classic /sdl- /Od /Oy- /D WIN32 /D _DEBUG /D _CONSOLE /D _LIB /D _UNICODE /D UNICODE /Gm- /EHsc /RTC1 /MDd /GS /fp:precise /Zc:wchar_t /Zc:forScope /Zc:inline /Fo"DEBUG\\" /Fd"DEBUG\VC141.PDB" /Gd /TP /analyze- /FC E:\DESKTOP\ON GOING PROJECTS\DREAMEATER\GAME\GAME\ENTITYSHADERS.CPP
^E:\DESKTOP\ON GOING PROJECTS\DREAMEATER\GAME\GAME\INSTANCEDSHADER.CPP
/c /ZI /nologo /W3 /WX- /diagnostics:classic /sdl- /Od /Oy- /D WIN32 /D _DEBUG /D _CONSOLE /D _LIB /D _UNICODE /D UNICODE /Gm- /EHsc /RTC1 /MDd /GS /fp:precise /Zc:wchar_t /Zc:forScope /Zc:inline /Fo"DEBUG\\" /Fd"DEBUG\VC141.PDB" /Gd /TP /analyze- /FC E:\DESKTOP\ON GOING PROJECTS\DREAMEATER\GAME\GAME\INSTANCEDSHADER.CPP
^E:\DESKTOP\ON GOING PROJECTS\DREAMEATER\GAME\GAME\PLAYER.CPP
/c /ZI /nologo /W3 /WX- /diagnostics:classic /sdl- /Od /Oy- /D WIN32 /D _DEBUG /D _CONSOLE /D _LIB /D _UNICODE /D UNICODE /Gm- /EHsc /RTC1 /MDd /GS /fp:precise /Zc:wchar_t /Zc:forScope /Zc:inline /Fo"DEBUG\\" /Fd"DEBUG\VC141.PDB" /Gd /TP /analyze- /FC E:\DESKTOP\ON GOING PROJECTS\DREAMEATER\GAME\GAME\PLAYER.CPP
^E:\DESKTOP\ON GOING PROJECTS\DREAMEATER\GAME\GAME\PLAYERMOVEMENT.CPP
/c /ZI /nologo /W3 /WX- /diagnostics:classic /sdl- /Od /Oy- /D WIN32 /D _DEBUG /D _CONSOLE /D _LIB /D _UNICODE /D UNICODE /Gm- /EHsc /RTC1 /MDd /GS /fp:precise /Zc:wchar_t /Zc:forScope /Zc:inline /Fo"DEBUG\\" /Fd"DEBUG\VC141.PDB" /Gd /TP /analyze- /FC E:\DESKTOP\ON GOING PROJECTS\DREAMEATER\GAME\GAME\PLAYERMOVEMENT.CPP
^E:\DESKTOP\ON GOING PROJECTS\DREAMEATER\GAME\GAME\RECOMPILESHADERS.CPP
/c /ZI /nologo /W3 /WX- /diagnostics:classic /sdl- /Od /Oy- /D WIN32 /D _DEBUG /D _CONSOLE /D _LIB /D _UNICODE /D UNICODE /Gm- /EHsc /RTC1 /MDd /GS /fp:precise /Zc:wchar_t /Zc:forScope /Zc:inline /Fo"DEBUG\\" /Fd"DEBUG\VC141.PDB" /Gd /TP /analyze- /FC E:\DESKTOP\ON GOING PROJECTS\DREAMEATER\GAME\GAME\RECOMPILESHADERS.CPP
^E:\DESKTOP\ON GOING PROJECTS\DREAMEATER\GAME\GAME\TRACKCOLOUREDAREA.CPP
/c /ZI /nologo /W3 /WX- /diagnostics:classic /sdl- /Od /Oy- /D WIN32 /D _DEBUG /D _CONSOLE /D _LIB /D _UNICODE /D UNICODE /Gm- /EHsc /RTC1 /MDd /GS /fp:precise /Zc:wchar_t /Zc:forScope /Zc:inline /Fo"DEBUG\\" /Fd"DEBUG\VC141.PDB" /Gd /TP /analyze- /FC E:\DESKTOP\ON GOING PROJECTS\DREAMEATER\GAME\GAME\TRACKCOLOUREDAREA.CPP
^E:\DESKTOP\ON GOING PROJECTS\DREAMEATER\GAME\GAME\WORLD.CPP
/c /ZI /nologo /W3 /WX- /diagnostics:classic /sdl- /Od /Oy- /D WIN32 /D _DEBUG /D _CONSOLE /D _LIB /D _UNICODE /D UNICODE /Gm- /EHsc /RTC1 /MDd /GS /fp:precise /Zc:wchar_t /Zc:forScope /Zc:inline /Fo"DEBUG\\" /Fd"DEBUG\VC141.PDB" /Gd /TP /analyze- /FC E:\DESKTOP\ON GOING PROJECTS\DREAMEATER\GAME\GAME\WORLD.CPP
^E:\DESKTOP\ON GOING PROJECTS\DREAMEATER\GAME\GAME\DREAMCAMERA.CPP
/c /ZI /nologo /W3 /WX- /diagnostics:classic /sdl- /Od /Oy- /D WIN32 /D _DEBUG /D _CONSOLE /D _LIB /D _UNICODE /D UNICODE /Gm- /EHsc /RTC1 /MDd /GS /fp:precise /Zc:wchar_t /Zc:forScope /Zc:inline /Fo"DEBUG\\" /Fd"DEBUG\VC141.PDB" /Gd /TP /analyze- /FC E:\DESKTOP\ON GOING PROJECTS\DREAMEATER\GAME\GAME\DREAMCAMERA.CPP
^D:\GIT REPOSITORIES\DREAMEATER\GAME\GAME\CARA.CPP
/c /ZI /JMC /nologo /W3 /WX- /diagnostics:classic /sdl- /Od /Oy- /D WIN32 /D _DEBUG /D _CONSOLE /D _LIB /D _UNICODE /D UNICODE /Gm- /EHsc /RTC1 /MDd /GS /fp:precise /Zc:wchar_t /Zc:forScope /Zc:inline /Fo"DEBUG\\" /Fd"DEBUG\VC141.PDB" /Gd /TP /analyze- /FC D:\GIT REPOSITORIES\DREAMEATER\GAME\GAME\CARA.CPP
^D:\GIT REPOSITORIES\DREAMEATER\GAME\GAME\DREAMEATERTERRAINTEXTURES.CPP
/c /ZI /JMC /nologo /W3 /WX- /diagnostics:classic /sdl- /Od /Oy- /D WIN32 /D _DEBUG /D _CONSOLE /D _LIB /D _UNICODE /D UNICODE /Gm- /EHsc /RTC1 /MDd /GS /fp:precise /Zc:wchar_t /Zc:forScope /Zc:inline /Fo"DEBUG\\" /Fd"DEBUG\VC141.PDB" /Gd /TP /analyze- /FC D:\GIT REPOSITORIES\DREAMEATER\GAME\GAME\DREAMEATERTERRAINTEXTURES.CPP
^D:\GIT REPOSITORIES\DREAMEATER\GAME\GAME\KEYBOARDMOVE.CPP
/c /ZI /JMC /nologo /W3 /WX- /diagnostics:classic /sdl- /Od /Oy- /D WIN32 /D _DEBUG /D _CONSOLE /D _LIB /D _UNICODE /D UNICODE /Gm- /EHsc /RTC1 /MDd /GS /fp:precise /Zc:wchar_t /Zc:forScope /Zc:inline /Fo"DEBUG\\" /Fd"DEBUG\VC141.PDB" /Gd /TP /analyze- /FC D:\GIT REPOSITORIES\DREAMEATER\GAME\GAME\KEYBOARDMOVE.CPP
^D:\GIT REPOSITORIES\DREAMEATER\GAME\GAME\MAINMENU.CPP
/c /ZI /JMC /nologo /W3 /WX- /diagnostics:classic /sdl- /Od /Oy- /D WIN32 /D _DEBUG /D _CONSOLE /D _LIB /D _UNICODE /D UNICODE /Gm- /EHsc /RTC1 /MDd /GS /fp:precise /Zc:wchar_t /Zc:forScope /Zc:inline /Fo"DEBUG\\" /Fd"DEBUG\VC141.PDB" /Gd /TP /analyze- /FC D:\GIT REPOSITORIES\DREAMEATER\GAME\GAME\MAINMENU.CPP
^D:\GIT REPOSITORIES\DREAMEATER\GAME\GAME\PLAYERCONTROLSWITCH.CPP
/c /ZI /JMC /nologo /W3 /WX- /diagnostics:classic /sdl- /Od /Oy- /D WIN32 /D _DEBUG /D _CONSOLE /D _LIB /D _UNICODE /D UNICODE /Gm- /EHsc /RTC1 /MDd /GS /fp:precise /Zc:wchar_t /Zc:forScope /Zc:inline /Fo"DEBUG\\" /Fd"DEBUG\VC141.PDB" /Gd /TP /analyze- /FC D:\GIT REPOSITORIES\DREAMEATER\GAME\GAME\PLAYERCONTROLSWITCH.CPP
^D:\GIT REPOSITORIES\DREAMEATER\GAME\GAME\PLAYERMOVEMENT.CPP
/c /ZI /JMC /nologo /W3 /WX- /diagnostics:classic /sdl- /Od /Oy- /D WIN32 /D _DEBUG /D _CONSOLE /D _LIB /D _UNICODE /D UNICODE /Gm- /EHsc /RTC1 /MDd /GS /fp:precise /Zc:wchar_t /Zc:forScope /Zc:inline /Fo"DEBUG\\" /Fd"DEBUG\VC141.PDB" /Gd /TP /analyze- /FC D:\GIT REPOSITORIES\DREAMEATER\GAME\GAME\PLAYERMOVEMENT.CPP
^D:\GIT REPOSITORIES\DREAMEATER\GAME\GAME\PROJECTILECREATOR.CPP
/c /ZI /JMC /nologo /W3 /WX- /diagnostics:classic /sdl- /Od /Oy- /D WIN32 /D _DEBUG /D _CONSOLE /D _LIB /D _UNICODE /D UNICODE /Gm- /EHsc /RTC1 /MDd /GS /fp:precise /Zc:wchar_t /Zc:forScope /Zc:inline /Fo"DEBUG\\" /Fd"DEBUG\VC141.PDB" /Gd /TP /analyze- /FC D:\GIT REPOSITORIES\DREAMEATER\GAME\GAME\PROJECTILECREATOR.CPP
^D:\GIT REPOSITORIES\DREAMEATER\GAME\GAME\ROAMBEHAVIOUR.CPP
/c /ZI /JMC /nologo /W3 /WX- /diagnostics:classic /sdl- /Od /Oy- /D WIN32 /D _DEBUG /D _CONSOLE /D _LIB /D _UNICODE /D UNICODE /Gm- /EHsc /RTC1 /MDd /GS /fp:precise /Zc:wchar_t /Zc:forScope /Zc:inline /Fo"DEBUG\\" /Fd"DEBUG\VC141.PDB" /Gd /TP /analyze- /FC D:\GIT REPOSITORIES\DREAMEATER\GAME\GAME\ROAMBEHAVIOUR.CPP
^D:\GIT REPOSITORIES\DREAMEATER\GAME\GAME\STARTGAME.CPP
/c /ZI /JMC /nologo /W3 /WX- /diagnostics:classic /sdl- /Od /Oy- /D WIN32 /D _DEBUG /D _CONSOLE /D _LIB /D _UNICODE /D UNICODE /Gm- /EHsc /RTC1 /MDd /GS /fp:precise /Zc:wchar_t /Zc:forScope /Zc:inline /Fo"DEBUG\\" /Fd"DEBUG\VC141.PDB" /Gd /TP /analyze- /FC D:\GIT REPOSITORIES\DREAMEATER\GAME\GAME\STARTGAME.CPP
^D:\GIT REPOSITORIES\DREAMEATER\GAME\GAME\DREAMCAMERA.CPP
/c /ZI /JMC /nologo /W3 /WX- /diagnostics:classic /sdl- /Od /Oy- /D WIN32 /D _DEBUG /D _CONSOLE /D _LIB /D _UNICODE /D UNICODE /Gm- /EHsc /RTC1 /MDd /GS /fp:precise /Zc:wchar_t /Zc:forScope /Zc:inline /Fo"DEBUG\\" /Fd"DEBUG\VC141.PDB" /Gd /TP /analyze- /FC D:\GIT REPOSITORIES\DREAMEATER\GAME\GAME\DREAMCAMERA.CPP
^D:\GIT REPOSITORIES\DREAMEATER\GAME\GAME\ATTACKABLEOBJECT.CPP
/c /ZI /JMC /nologo /W3 /WX- /diagnostics:classic /sdl- /Od /Oy- /D WIN32 /D _DEBUG /D _CONSOLE /D _LIB /D _UNICODE /D UNICODE /Gm- /EHsc /RTC1 /MDd /GS /fp:precise /Zc:wchar_t /Zc:forScope /Zc:inline /Fo"DEBUG\\" /Fd"DEBUG\VC141.PDB" /Gd /TP /analyze- /FC D:\GIT REPOSITORIES\DREAMEATER\GAME\GAME\ATTACKABLEOBJECT.CPP
^D:\GIT REPOSITORIES\DREAMEATER\GAME\GAME\DREAMCUSTOM.CPP
/c /ZI /JMC /nologo /W3 /WX- /diagnostics:classic /sdl- /Od /Oy- /D WIN32 /D _DEBUG /D _CONSOLE /D _LIB /D _UNICODE /D UNICODE /Gm- /EHsc /RTC1 /MDd /GS /fp:precise /Zc:wchar_t /Zc:forScope /Zc:inline /Fo"DEBUG\\" /Fd"DEBUG\VC141.PDB" /Gd /TP /analyze- /FC D:\GIT REPOSITORIES\DREAMEATER\GAME\GAME\DREAMCUSTOM.CPP
^D:\GIT REPOSITORIES\DREAMEATER\GAME\GAME\DREAMINSTANCED.CPP
/c /ZI /JMC /nologo /W3 /WX- /diagnostics:classic /sdl- /Od /Oy- /D WIN32 /D _DEBUG /D _CONSOLE /D _LIB /D _UNICODE /D UNICODE /Gm- /EHsc /RTC1 /MDd /GS /fp:precise /Zc:wchar_t /Zc:forScope /Zc:inline /Fo"DEBUG\\" /Fd"DEBUG\VC141.PDB" /Gd /TP /analyze- /FC D:\GIT REPOSITORIES\DREAMEATER\GAME\GAME\DREAMINSTANCED.CPP
^D:\GIT REPOSITORIES\DREAMEATER\GAME\GAME\DREAMOBJECTFACTORY.CPP
/c /ZI /JMC /nologo /W3 /WX- /diagnostics:classic /sdl- /Od /Oy- /D WIN32 /D _DEBUG /D _CONSOLE /D _LIB /D _UNICODE /D UNICODE /Gm- /EHsc /RTC1 /MDd /GS /fp:precise /Zc:wchar_t /Zc:forScope /Zc:inline /Fo"DEBUG\\" /Fd"DEBUG\VC141.PDB" /Gd /TP /analyze- /FC D:\GIT REPOSITORIES\DREAMEATER\GAME\GAME\DREAMOBJECTFACTORY.CPP
^D:\GIT REPOSITORIES\DREAMEATER\GAME\GAME\DREAMTERRAIN.CPP
/c /ZI /JMC /nologo /W3 /WX- /diagnostics:classic /sdl- /Od /Oy- /D WIN32 /D _DEBUG /D _CONSOLE /D _LIB /D _UNICODE /D UNICODE /Gm- /EHsc /RTC1 /MDd /GS /fp:precise /Zc:wchar_t /Zc:forScope /Zc:inline /Fo"DEBUG\\" /Fd"DEBUG\VC141.PDB" /Gd /TP /analyze- /FC D:\GIT REPOSITORIES\DREAMEATER\GAME\GAME\DREAMTERRAIN.CPP
^D:\GIT REPOSITORIES\DREAMEATER\GAME\GAME\DREAMTERRAINSHADERS.CPP
/c /ZI /JMC /nologo /W3 /WX- /diagnostics:classic /sdl- /Od /Oy- /D WIN32 /D _DEBUG /D _CONSOLE /D _LIB /D _UNICODE /D UNICODE /Gm- /EHsc /RTC1 /MDd /GS /fp:precise /Zc:wchar_t /Zc:forScope /Zc:inline /Fo"DEBUG\\" /Fd"DEBUG\VC141.PDB" /Gd /TP /analyze- /FC D:\GIT REPOSITORIES\DREAMEATER\GAME\GAME\DREAMTERRAINSHADERS.CPP
^D:\GIT REPOSITORIES\DREAMEATER\GAME\GAME\DREAMEATERSHADER.CPP
/c /ZI /JMC /nologo /W3 /WX- /diagnostics:classic /sdl- /Od /Oy- /D WIN32 /D _DEBUG /D _CONSOLE /D _LIB /D _UNICODE /D UNICODE /Gm- /EHsc /RTC1 /MDd /GS /fp:precise /Zc:wchar_t /Zc:forScope /Zc:inline /Fo"DEBUG\\" /Fd"DEBUG\VC141.PDB" /Gd /TP /analyze- /FC D:\GIT REPOSITORIES\DREAMEATER\GAME\GAME\DREAMEATERSHADER.CPP
^D:\GIT REPOSITORIES\DREAMEATER\GAME\GAME\ENEMYMINION.CPP
/c /ZI /JMC /nologo /W3 /WX- /diagnostics:classic /sdl- /Od /Oy- /D WIN32 /D _DEBUG /D _CONSOLE /D _LIB /D _UNICODE /D UNICODE /Gm- /EHsc /RTC1 /MDd /GS /fp:precise /Zc:wchar_t /Zc:forScope /Zc:inline /Fo"DEBUG\\" /Fd"DEBUG\VC141.PDB" /Gd /TP /analyze- /FC D:\GIT REPOSITORIES\DREAMEATER\GAME\GAME\ENEMYMINION.CPP
^D:\GIT REPOSITORIES\DREAMEATER\GAME\GAME\ENEMYPOOL.CPP
/c /ZI /JMC /nologo /W3 /WX- /diagnostics:classic /sdl- /Od /Oy- /D WIN32 /D _DEBUG /D _CONSOLE /D _LIB /D _UNICODE /D UNICODE /Gm- /EHsc /RTC1 /MDd /GS /fp:precise /Zc:wchar_t /Zc:forScope /Zc:inline /Fo"DEBUG\\" /Fd"DEBUG\VC141.PDB" /Gd /TP /analyze- /FC D:\GIT REPOSITORIES\DREAMEATER\GAME\GAME\ENEMYPOOL.CPP
^D:\GIT REPOSITORIES\DREAMEATER\GAME\GAME\ENEMYSPAWNER.CPP
/c /ZI /JMC /nologo /W3 /WX- /diagnostics:classic /sdl- /Od /Oy- /D WIN32 /D _DEBUG /D _CONSOLE /D _LIB /D _UNICODE /D UNICODE /Gm- /EHsc /RTC1 /MDd /GS /fp:precise /Zc:wchar_t /Zc:forScope /Zc:inline /Fo"DEBUG\\" /Fd"DEBUG\VC141.PDB" /Gd /TP /analyze- /FC D:\GIT REPOSITORIES\DREAMEATER\GAME\GAME\ENEMYSPAWNER.CPP
^D:\GIT REPOSITORIES\DREAMEATER\GAME\GAME\ENTITYSHADERS.CPP
/c /ZI /JMC /nologo /W3 /WX- /diagnostics:classic /sdl- /Od /Oy- /D WIN32 /D _DEBUG /D _CONSOLE /D _LIB /D _UNICODE /D UNICODE /Gm- /EHsc /RTC1 /MDd /GS /fp:precise /Zc:wchar_t /Zc:forScope /Zc:inline /Fo"DEBUG\\" /Fd"DEBUG\VC141.PDB" /Gd /TP /analyze- /FC D:\GIT REPOSITORIES\DREAMEATER\GAME\GAME\ENTITYSHADERS.CPP
^D:\GIT REPOSITORIES\DREAMEATER\GAME\GAME\INSTANCEDSHADER.CPP
/c /ZI /JMC /nologo /W3 /WX- /diagnostics:classic /sdl- /Od /Oy- /D WIN32 /D _DEBUG /D _CONSOLE /D _LIB /D _UNICODE /D UNICODE /Gm- /EHsc /RTC1 /MDd /GS /fp:precise /Zc:wchar_t /Zc:forScope /Zc:inline /Fo"DEBUG\\" /Fd"DEBUG\VC141.PDB" /Gd /TP /analyze- /FC D:\GIT REPOSITORIES\DREAMEATER\GAME\GAME\INSTANCEDSHADER.CPP
^D:\GIT REPOSITORIES\DREAMEATER\GAME\GAME\PLAYER.CPP
/c /ZI /JMC /nologo /W3 /WX- /diagnostics:classic /sdl- /Od /Oy- /D WIN32 /D _DEBUG /D _CONSOLE /D _LIB /D _UNICODE /D UNICODE /Gm- /EHsc /RTC1 /MDd /GS /fp:precise /Zc:wchar_t /Zc:forScope /Zc:inline /Fo"DEBUG\\" /Fd"DEBUG\VC141.PDB" /Gd /TP /analyze- /FC D:\GIT REPOSITORIES\DREAMEATER\GAME\GAME\PLAYER.CPP
^D:\GIT REPOSITORIES\DREAMEATER\GAME\GAME\RECOMPILESHADERS.CPP
/c /ZI /JMC /nologo /W3 /WX- /diagnostics:classic /sdl- /Od /Oy- /D WIN32 /D _DEBUG /D _CONSOLE /D _LIB /D _UNICODE /D UNICODE /Gm- /EHsc /RTC1 /MDd /GS /fp:precise /Zc:wchar_t /Zc:forScope /Zc:inline /Fo"DEBUG\\" /Fd"DEBUG\VC141.PDB" /Gd /TP /analyze- /FC D:\GIT REPOSITORIES\DREAMEATER\GAME\GAME\RECOMPILESHADERS.CPP
^D:\GIT REPOSITORIES\DREAMEATER\GAME\GAME\TRACKCOLOUREDAREA.CPP
/c /ZI /JMC /nologo /W3 /WX- /diagnostics:classic /sdl- /Od /Oy- /D WIN32 /D _DEBUG /D _CONSOLE /D _LIB /D _UNICODE /D UNICODE /Gm- /EHsc /RTC1 /MDd /GS /fp:precise /Zc:wchar_t /Zc:forScope /Zc:inline /Fo"DEBUG\\" /Fd"DEBUG\VC141.PDB" /Gd /TP /analyze- /FC D:\GIT REPOSITORIES\DREAMEATER\GAME\GAME\TRACKCOLOUREDAREA.CPP
^D:\GIT REPOSITORIES\DREAMEATER\GAME\GAME\WORLD.CPP
/c /ZI /JMC /nologo /W3 /WX- /diagnostics:classic /sdl- /Od /Oy- /D WIN32 /D _DEBUG /D _CONSOLE /D _LIB /D _UNICODE /D UNICODE /Gm- /EHsc /RTC1 /MDd /GS /fp:precise /Zc:wchar_t /Zc:forScope /Zc:inline /Fo"DEBUG\\" /Fd"DEBUG\VC141.PDB" /Gd /TP /analyze- /FC D:\GIT REPOSITORIES\DREAMEATER\GAME\GAME\WORLD.CPP
^D:\GIT REPOSITORIES\DREAMEATER\GAME\GAME\MAIN.CPP
/c /ZI /JMC /nologo /W3 /WX- /diagnostics:classic /sdl- /Od /Oy- /D WIN32 /D _DEBUG /D _CONSOLE /D _LIB /D _UNICODE /D UNICODE /Gm- /EHsc /RTC1 /MDd /GS /fp:precise /Zc:wchar_t /Zc:forScope /Zc:inline /Fo"DEBUG\\" /Fd"DEBUG\VC141.PDB" /Gd /TP /analyze- /FC D:\GIT REPOSITORIES\DREAMEATER\GAME\GAME\MAIN.CPP
