^D:\GIT REPOSITORIES\DREAMEATER\GAME\GAME\DEBUG\ATTACKABLEOBJECT.OBJ|D:\GIT REPOSITORIES\DREAMEATER\GAME\GAME\DEBUG\CARA.OBJ|D:\GIT REPOSITORIES\DREAMEATER\GAME\GAME\DEBUG\DREAMCAMERA.OBJ|D:\GIT REPOSITORIES\DREAMEATER\GAME\GAME\DEBUG\DREAMCUSTOM.OBJ|D:\GIT REPOSITORIES\DREAMEATER\GAME\GAME\DEBUG\DREAMEATERSHADER.OBJ|D:\GIT REPOSITORIES\DREAMEATER\GAME\GAME\DEBUG\DREAMEATERTERRAINTEXTURES.OBJ|D:\GIT REPOSITORIES\DREAMEATER\GAME\GAME\DEBUG\DREAMINSTANCED.OBJ|D:\GIT REPOSITORIES\DREAMEATER\GAME\GAME\DEBUG\DREAMOBJECTFACTORY.OBJ|D:\GIT REPOSITORIES\DREAMEATER\GAME\GAME\DEBUG\DREAMTERRAIN.OBJ|D:\GIT REPOSITORIES\DREAMEATER\GAME\GAME\DEBUG\DREAMTERRAINSHADERS.OBJ|D:\GIT REPOSITORIES\DREAMEATER\GAME\GAME\DEBUG\ENEMYMINION.OBJ|D:\GIT REPOSITORIES\DREAMEATER\GAME\GAME\DEBUG\ENEMYPOOL.OBJ|D:\GIT REPOSITORIES\DREAMEATER\GAME\GAME\DEBUG\ENEMYSPAWNER.OBJ|D:\GIT REPOSITORIES\DREAMEATER\GAME\GAME\DEBUG\ENTITYSHADERS.OBJ|D:\GIT REPOSITORIES\DREAMEATER\GAME\GAME\DEBUG\INSTANCEDSHADER.OBJ|D:\GIT REPOSITORIES\DREAMEATER\GAME\GAME\DEBUG\KEYBOARDMOVE.OBJ|D:\GIT REPOSITORIES\DREAMEATER\GAME\GAME\DEBUG\MAIN.OBJ|D:\GIT REPOSITORIES\DREAMEATER\GAME\GAME\DEBUG\MAINMENU.OBJ|D:\GIT REPOSITORIES\DREAMEATER\GAME\GAME\DEBUG\PLAYER.OBJ|D:\GIT REPOSITORIES\DREAMEATER\GAME\GAME\DEBUG\PLAYERCONTROLSWITCH.OBJ|D:\GIT REPOSITORIES\DREAMEATER\GAME\GAME\DEBUG\PLAYERMOVEMENT.OBJ|D:\GIT REPOSITORIES\DREAMEATER\GAME\GAME\DEBUG\PROJECTILECREATOR.OBJ|D:\GIT REPOSITORIES\DREAMEATER\GAME\GAME\DEBUG\RECOMPILESHADERS.OBJ|D:\GIT REPOSITORIES\DREAMEATER\GAME\GAME\DEBUG\ROAMBEHAVIOUR.OBJ|D:\GIT REPOSITORIES\DREAMEATER\GAME\GAME\DEBUG\STARTGAME.OBJ|D:\GIT REPOSITORIES\DREAMEATER\GAME\GAME\DEBUG\TRACKCOLOUREDAREA.OBJ|D:\GIT REPOSITORIES\DREAMEATER\GAME\GAME\DEBUG\WORLD.OBJ
D:\GIT REPOSITORIES\DREAMEATER\GAME\GAME\DEBUG\DREAMEATER.EXE
D:\GIT REPOSITORIES\DREAMEATER\GAME\GAME\DEBUG\DREAMEATER.ILK
D:\GIT REPOSITORIES\DREAMEATER\GAME\GAME\DEBUG\DREAMEATER.PDB
